{
  "files": {
    "main.css": "/static/css/main.da00e936.chunk.css",
    "main.js": "/static/js/main.5fc67fe8.chunk.js",
    "main.js.map": "/static/js/main.5fc67fe8.chunk.js.map",
    "runtime~main.js": "/static/js/runtime~main.a8a9905a.js",
    "runtime~main.js.map": "/static/js/runtime~main.a8a9905a.js.map",
    "static/css/2.84c661cf.chunk.css": "/static/css/2.84c661cf.chunk.css",
    "static/js/2.ec52afd5.chunk.js": "/static/js/2.ec52afd5.chunk.js",
    "static/js/2.ec52afd5.chunk.js.map": "/static/js/2.ec52afd5.chunk.js.map",
    "index.html": "/index.html",
    "precache-manifest.40bb6ce38b4601d050029905ef4cfbc2.js": "/precache-manifest.40bb6ce38b4601d050029905ef4cfbc2.js",
    "service-worker.js": "/service-worker.js",
    "static/css/2.84c661cf.chunk.css.map": "/static/css/2.84c661cf.chunk.css.map",
    "static/css/main.da00e936.chunk.css.map": "/static/css/main.da00e936.chunk.css.map",
    "static/media/font-awesome.css": "/static/media/fontawesome-webfont.fee66e71.woff"
  }
}